Patent Data Gathering & Preprocess
…
US10174378 US10051863 US10028970  US9981204  US9844221 
      TRUE       TRUE       TRUE       TRUE       TRUE 

list_download_result %>% table()

.
TRUE 
  60 

tbl_patent_number <- tibble(patent_number = names(list_download_result), exist = list_download_result)

tbl_patent_number %>% print()

# A tibble: 60 x 2
   patent_number exist
   <chr>         <lgl>
 1 US10174378    TRUE 
 2 US10051863    TRUE 
 3 US10028970    TRUE 
 4 US9981204     TRUE 
 5 US9844221     TRUE 
 6 US9693948     TRUE 
 7 US9511107     TRUE 
 8 US9486108     TRUE 
 9 US9427103     TRUE 
10 US9275235     TRUE 
#  with 50 more rows
…
